{
    "silenzioh": [
        "SILENZIOH!",
        "Volete fare silenzioh?!",
        "Ricordati che devi morire... e che devi fare SILENZIOH"
    ],
    
    "fanelli": [
        "SILENZIOH!",
        "Volete fare silenzioh?!",
        "Non so se mi sono spiegata?",
        "Avete capito?",
        "Mi seguite?",
        "C'è qualcuno non italiano?",
        "Mi seguite bene?",
        "Mi seguite nel discorso?",
        "Che state a guardare sul telefono? Qualche signorina?",
        "Eh io il microfono non lo uso",
        "Perché piccolo non è solo più bello,  ma anche più veloce",
        "Eeehh??",
        "Per favore! Staph!",
        "La maleducazione galoppa"
    ],

    "lanza": [
        "L' area del rettangolo? Base per altezza diviso due",
        "5+3+10=13",
        "Voglio ammodernare la mia scrivania",
        "Qualcuno ha detto basta? QUALCUNO HA DETTO BASTAH?!",
        "Si inizia dall' inizio",
        "Non mi fate incazzare! Basta con sta storia della pausa"
    ],

    "nardozza": [
        "Chiaro?",
        "Devo ripetere?",
        "Pausa?",
        "Ho ondeggiato"
    ]
}